week13/dff_single/simulation/qsim/dff_single.msim.vcd
$comment
	File created using the following command:
		vcd file dff_single.msim.vcd -direction
$end
$date
	Wed Nov 29 15:44:22 2023
$end
$version
	ModelSim Version 10.1d
$end
$timescale
	1ps
$end
$scope module dff_single_vlg_vec_tst $end
$var reg 1 ! clk $end
$var reg 1 " clr $end
$var reg 1 # d $end
$var wire 1 $ q $end
$var wire 1 % sampler $end
$scope module i1 $end
$var wire 1 & gnd $end
$var wire 1 ' vcc $end
$var wire 1 ( unknown $end
$var tri1 1 ) devclrn $end
$var tri1 1 * devpor $end
$var tri1 1 + devoe $end
$var wire 1 , q~output_o $end
$var wire 1 - clk~input_o $end
$var wire 1 . d~input_o $end
$var wire 1 / q~reg0feeder_combout $end
$var wire 1 0 clr~input_o $end
$var wire 1 1 q~reg0_q $end
$upscope $end
$upscope $end
$enddefinitions $end
#0
$dumpvars
0!
1"
0#
x$
x%
0&
1'
x(
1)
1*
1+
x,
0-
0.
x/
10
01
$end
#3751
0,
0$
#3900
0/
#5000
1!
0%
#5754
1-
#10000
0!
1%
#10801
0-
#15000
1!
0%
#15754
1-
#20000
0!
1%
#20801
0-
#25000
1!
0%
#25754
1-
#30000
0!
1%
#30801
0-
#35000
1!
0%
#35754
1-
#40000
0!
1%
#40801
0-
#45000
1!
0%
#45754
1-
#50000
1#
0!
1%
#50754
1.
#50801
0-
#54492
1/
#55000
1!
0%
#55754
1-
#57794
11
#60000
0!
1%
#60801
0-
#61643
1,
1$
#65000
1!
0%
#65754
1-
#70000
0!
1%
#70801
0-
#75000
1!
0%
#75754
1-
#80000
0!
1%
#80801
0-
#85000
1!
0%
#85754
1-
#90000
0!
1%
#90801
0-
#95000
1!
0%
#95754
1-
#100000
0!
1%
#100801
0-
#105000
1!
0%
#105754
1-
#110000
0!
1%
#110801
0-
#115000
1!
0%
#115754
1-
#120000
0!
1%
#120801
0-
#125000
1!
0%
#125754
1-
#130000
0!
1%
#130801
0-
#135000
1!
0%
#135754
1-
#140000
0#
0!
1%
#140801
0-
0.
#144701
0/
#145000
1!
0%
#145754
1-
#147794
01
#150000
0!
1%
#150801
0-
#151545
0,
0$
#155000
1!
0%
#155754
1-
#160000
0!
1%
#160801
0-
#165000
1!
0%
#165754
1-
#170000
0!
1%
#170801
0-
#175000
1!
0%
#175754
1-
#180000
0!
1%
#180801
0-
#185000
1!
0%
#185754
1-
#190000
0!
1%
#190801
0-
#195000
1!
0%
#195754
1-
#200000
0!
1%
#200801
0-
#205000
1!
0%
#205754
1-
#210000
0!
1%
#210801
0-
#215000
1!
0%
#215754
1-
#220000
0!
1%
#220801
0-
#225000
1!
0%
#225754
1-
#230000
0!
1%
#230801
0-
#235000
1!
0%
#235754
1-
#240000
0!
1%
#240801
0-
#245000
1!
0%
#245754
1-
#250000
0!
1%
#250801
0-
#255000
1!
0%
#255754
1-
#260000
0!
1%
#260801
0-
#265000
1!
0%
#265754
1-
#270000
0!
1%
#270801
0-
#275000
1!
0%
#275754
1-
#280000
0!
1%
#280801
0-
#285000
1!
0%
#285754
1-
#290000
0!
1%
#290801
0-
#295000
1!
0%
#295754
1-
#300000
0!
1%
#300801
0-
#305000
1!
0%
#305754
1-
#310000
0!
1%
#310801
0-
#315000
1!
0%
#315754
1-
#320000
0!
1%
#320801
0-
#325000
1!
0%
#325754
1-
#330000
0!
1%
#330801
0-
#335000
1!
0%
#335754
1-
#340000
0!
1%
#340801
0-
#345000
1!
0%
#345754
1-
#350000
0!
1%
#350801
0-
#355000
1!
0%
#355754
1-
#360000
0!
1%
#360801
0-
#365000
1!
0%
#365754
1-
#370000
1#
0!
1%
#370754
1.
#370801
0-
#374492
1/
#375000
1!
0%
#375754
1-
#377794
11
#380000
0!
1%
#380801
0-
#381643
1,
1$
#385000
1!
0%
#385754
1-
#390000
0!
1%
#390801
0-
#395000
1!
0%
#395754
1-
#400000
0!
1%
#400801
0-
#405000
1!
0%
#405754
1-
#410000
0!
1%
#410801
0-
#415000
1!
0%
#415754
1-
#420000
0!
1%
#420801
0-
#425000
1!
0%
#425754
1-
#430000
0!
1%
#430801
0-
#435000
1!
0%
#435754
1-
#440000
0!
1%
#440801
0-
#445000
1!
0%
#445754
1-
#450000
0!
1%
#450801
0-
#455000
1!
0%
#455754
1-
#460000
0!
1%
#460801
0-
#465000
1!
0%
#465754
1-
#470000
0!
1%
#470801
0-
#475000
1!
0%
#475754
1-
#480000
0!
1%
#480801
0-
#485000
1!
0%
#485754
1-
#490000
0!
1%
#490801
0-
#495000
1!
0%
#495754
1-
#500000
0!
1%
#500801
0-
#505000
1!
0%
#505754
1-
#510000
0!
1%
#510801
0-
#515000
1!
0%
#515754
1-
#520000
0#
0!
1%
#520801
0-
0.
#524701
0/
#525000
1!
0%
#525754
1-
#527794
01
#530000
0!
1%
#530801
0-
#531545
0,
0$
#535000
1!
0%
#535754
1-
#540000
0!
1%
#540801
0-
#545000
1!
0%
#545754
1-
#550000
0!
1%
#550801
0-
#555000
1!
0%
#555754
1-
#560000
0!
1%
#560801
0-
#565000
1!
0%
#565754
1-
#570000
0!
1%
#570801
0-
#575000
1!
0%
#575754
1-
#580000
0!
1%
#580801
0-
#585000
1!
0%
#585754
1-
#590000
0!
1%
#590801
0-
#595000
1!
0%
#595754
1-
#600000
0!
1%
#600801
0-
#605000
1!
0%
#605754
1-
#610000
0!
1%
#610801
0-
#615000
1!
0%
#615754
1-
#620000
0!
1%
#620801
0-
#625000
1!
0%
#625754
1-
#630000
0!
1%
#630801
0-
#635000
1!
0%
#635754
1-
#640000
0!
1%
#640801
0-
#645000
1!
0%
#645754
1-
#650000
0!
1%
#650801
0-
#655000
1!
0%
#655754
1-
#660000
0!
1%
#660801
0-
#665000
1!
0%
#665754
1-
#670000
0!
1%
#670801
0-
#675000
1!
0%
#675754
1-
#680000
0!
1%
#680801
0-
#685000
1!
0%
#685754
1-
#690000
1#
0!
1%
#690754
1.
#690801
0-
#694492
1/
#695000
1!
0%
#695754
1-
#697794
11
#700000
0!
1%
#700801
0-
#701643
1,
1$
#705000
1!
0%
#705754
1-
#710000
0!
1%
#710801
0-
#715000
1!
0%
#715754
1-
#720000
0!
1%
#720801
0-
#725000
1!
0%
#725754
1-
#730000
0!
1%
#730801
0-
#735000
1!
0%
#735754
1-
#740000
0!
1%
#740801
0-
#745000
1!
0%
#745754
1-
#750000
0!
1%
#750801
0-
#755000
1!
0%
#755754
1-
#760000
0!
1%
#760801
0-
#765000
1!
0%
#765754
1-
#770000
0!
1%
#770801
0-
#775000
1!
0%
#775754
1-
#780000
0!
1%
#780801
0-
#785000
1!
0%
#785754
1-
#790000
0!
1%
#790801
0-
#795000
1!
0%
#795754
1-
#800000
0!
1%
#800801
0-
#805000
1!
0%
#805754
1-
#810000
0!
1%
#810801
0-
#815000
1!
0%
#815754
1-
#820000
0!
1%
#820801
0-
#825000
1!
0%
#825754
1-
#830000
0!
1%
#830801
0-
#835000
1!
0%
#835754
1-
#840000
0!
1%
#840801
0-
#845000
1!
0%
#845754
1-
#850000
0!
1%
#850801
0-
#855000
1!
0%
#855754
1-
#860000
0#
0!
1%
#860801
0-
0.
#864701
0/
#865000
1!
0%
#865754
1-
#867794
01
#870000
0!
1%
#870801
0-
#871545
0,
0$
#875000
1!
0%
#875754
1-
#880000
0!
1%
#880801
0-
#885000
1!
0%
#885754
1-
#890000
0!
1%
#890801
0-
#895000
1!
0%
#895754
1-
#900000
0!
1%
#900801
0-
#905000
1!
0%
#905754
1-
#910000
0!
1%
#910801
0-
#915000
1!
0%
#915754
1-
#920000
0!
1%
#920801
0-
#925000
1!
0%
#925754
1-
#930000
0!
1%
#930801
0-
#935000
1!
0%
#935754
1-
#940000
0!
1%
#940801
0-
#945000
1!
0%
#945754
1-
#950000
0!
1%
#950801
0-
#955000
1!
0%
#955754
1-
#960000
0!
1%
#960801
0-
#965000
1!
0%
#965754
1-
#970000
0!
1%
#970801
0-
#975000
1!
0%
#975754
1-
#980000
0!
1%
#980801
0-
#985000
1!
0%
#985754
1-
#990000
0!
1%
#990801
0-
#995000
1!
0%
#995754
1-
