week10-quartus/test/simulation/qsim/test.msim.vcd
$comment
	File created using the following command:
		vcd file test.msim.vcd -direction
$end
$date
	Wed Nov 08 16:22:32 2023
$end
$version
	ModelSim Version 10.1d
$end
$timescale
	1ps
$end
$scope module test_vlg_vec_tst $end
$var reg 1 ! in0 $end
$var reg 1 " in1 $end
$var wire 1 # and2_out $end
$var wire 1 $ sampler $end
$scope module i1 $end
$var wire 1 % gnd $end
$var wire 1 & vcc $end
$var wire 1 ' unknown $end
$var tri1 1 ( devclrn $end
$var tri1 1 ) devpor $end
$var tri1 1 * devoe $end
$var wire 1 + in1~combout $end
$var wire 1 , in0~combout $end
$var wire 1 - inst~combout $end
$upscope $end
$upscope $end
$enddefinitions $end
#0
$dumpvars
0!
0"
0#
x$
0%
1&
x'
1(
1)
1*
0+
0,
0-
$end
#10000
1!
1,
0$
#20000
1"
0!
1+
0,
1$
#30000
1!
1,
0$
1-
1#
#40000
0"
0!
0+
0,
1$
0-
0#
#50000
1!
1,
0$
#60000
1"
0!
1+
0,
1$
#70000
1!
1,
0$
1-
1#
#80000
0"
0!
0+
0,
1$
0-
0#
#90000
1!
1,
0$
#100000
1"
0!
1+
0,
1$
#110000
1!
1,
0$
1-
1#
#120000
0"
0!
0+
0,
1$
0-
0#
#130000
1!
1,
0$
#140000
1"
0!
1+
0,
1$
#150000
1!
1,
0$
1-
1#
#160000
0"
0!
0+
0,
1$
0-
0#
#170000
1!
1,
0$
#180000
1"
0!
1+
0,
1$
#190000
1!
1,
0$
1-
1#
#200000
0"
0!
0+
0,
1$
0-
0#
#210000
1!
1,
0$
#220000
1"
0!
1+
0,
1$
#230000
1!
1,
0$
1-
1#
#240000
0"
0!
0+
0,
1$
0-
0#
#250000
1!
1,
0$
#260000
1"
0!
1+
0,
1$
#270000
1!
1,
0$
1-
1#
#280000
0"
0!
0+
0,
1$
0-
0#
#290000
1!
1,
0$
#300000
1"
0!
1+
0,
1$
#310000
1!
1,
0$
1-
1#
#320000
0"
0!
0+
0,
1$
0-
0#
#330000
1!
1,
0$
#340000
1"
0!
1+
0,
1$
#350000
1!
1,
0$
1-
1#
#360000
0"
0!
0+
0,
1$
0-
0#
#370000
1!
1,
0$
#380000
1"
0!
1+
0,
1$
#390000
1!
1,
0$
1-
1#
#400000
0"
0!
0+
0,
1$
0-
0#
#410000
1!
1,
0$
#420000
1"
0!
1+
0,
1$
#430000
1!
1,
0$
1-
1#
#440000
0"
0!
0+
0,
1$
0-
0#
#450000
1!
1,
0$
#460000
1"
0!
1+
0,
1$
#470000
1!
1,
0$
1-
1#
#480000
0"
0!
0+
0,
1$
0-
0#
#490000
1!
1,
0$
#500000
1"
0!
1+
0,
1$
#510000
1!
1,
0$
1-
1#
#520000
0"
0!
0+
0,
1$
0-
0#
#530000
1!
1,
0$
#540000
1"
0!
1+
0,
1$
#550000
1!
1,
0$
1-
1#
#560000
0"
0!
0+
0,
1$
0-
0#
#570000
1!
1,
0$
#580000
1"
0!
1+
0,
1$
#590000
1!
1,
0$
1-
1#
#600000
0"
0!
0+
0,
1$
0-
0#
#610000
1!
1,
0$
#620000
1"
0!
1+
0,
1$
#630000
1!
1,
0$
1-
1#
#640000
0"
0!
0+
0,
1$
0-
0#
#650000
1!
1,
0$
#660000
1"
0!
1+
0,
1$
#670000
1!
1,
0$
1-
1#
#680000
0"
0!
0+
0,
1$
0-
0#
#690000
1!
1,
0$
#700000
1"
0!
1+
0,
1$
#710000
1!
1,
0$
1-
1#
#720000
0"
0!
0+
0,
1$
0-
0#
#730000
1!
1,
0$
#740000
1"
0!
1+
0,
1$
#750000
1!
1,
0$
1-
1#
#760000
0"
0!
0+
0,
1$
0-
0#
#770000
1!
1,
0$
#780000
1"
0!
1+
0,
1$
#790000
1!
1,
0$
1-
1#
#800000
0"
0!
0+
0,
1$
0-
0#
#810000
1!
1,
0$
#820000
1"
0!
1+
0,
1$
#830000
1!
1,
0$
1-
1#
#840000
0"
0!
0+
0,
1$
0-
0#
#850000
1!
1,
0$
#860000
1"
0!
1+
0,
1$
#870000
1!
1,
0$
1-
1#
#880000
0"
0!
0+
0,
1$
0-
0#
#890000
1!
1,
0$
#900000
1"
0!
1+
0,
1$
#910000
1!
1,
0$
1-
1#
#920000
0"
0!
0+
0,
1$
0-
0#
#930000
1!
1,
0$
#940000
1"
0!
1+
0,
1$
#950000
1!
1,
0$
1-
1#
#960000
0"
0!
0+
0,
1$
0-
0#
#970000
1!
1,
0$
#980000
1"
0!
1+
0,
1$
#990000
1!
1,
0$
1-
1#
