week11/example/simulation/qsim/example.msim.vcd
$comment
	File created using the following command:
		vcd file example.msim.vcd -direction
$end
$date
	Wed Nov 15 14:49:44 2023
$end
$version
	ModelSim Version 10.1d
$end
$timescale
	1ps
$end
$scope module example_vlg_vec_tst $end
$var reg 1 ! a $end
$var reg 1 " b $end
$var reg 1 # c0 $end
$var reg 1 $ c1 $end
$var wire 1 % and_out $end
$var wire 1 & or_out $end
$var wire 1 ' xor_out $end
$var wire 1 ( sampler $end
$scope module i1 $end
$var wire 1 ) gnd $end
$var wire 1 * vcc $end
$var wire 1 + unknown $end
$var tri1 1 , devclrn $end
$var tri1 1 - devpor $end
$var tri1 1 . devoe $end
$var wire 1 / b~combout $end
$var wire 1 0 a~combout $end
$var wire 1 1 inst~combout $end
$var wire 1 2 c0~combout $end
$var wire 1 3 c1~combout $end
$var wire 1 4 inst2~combout $end
$var wire 1 5 inst1~combout $end
$upscope $end
$upscope $end
$enddefinitions $end
#0
$dumpvars
0!
0"
0#
0$
x%
x&
x'
x(
0)
1*
x+
1,
1-
1.
0/
00
x1
02
03
x4
x5
$end
#6002
05
#6056
01
#6363
04
#9801
0%
#10156
0&
#10510
0'
#50000
1"
1#
0(
#50965
12
1/
#57263
15
14
#61410
1'
#61417
1&
#100000
1!
1$
0"
0#
1(
#100965
02
0/
#100985
13
#101004
10
#150000
1"
1#
0(
#150965
12
1/
#157021
11
#157328
04
#160766
1%
#161475
0'
#200000
0!
0$
0"
0#
1(
#200965
02
0/
#200985
03
#201004
00
#206987
05
#207021
01
#210766
0%
#211141
0&
#250000
1"
1#
0(
#250965
12
1/
#257263
15
14
#261410
1'
#261417
1&
#300000
1!
1$
0"
0#
1(
#300965
02
0/
#300985
13
#301004
10
#350000
1"
1#
0(
#350965
12
1/
#357021
11
#357328
04
#360766
1%
#361475
0'
#400000
0!
0$
0"
0#
1(
#400965
02
0/
#400985
03
#401004
00
#406987
05
#407021
01
#410766
0%
#411141
0&
#450000
1"
1#
0(
#450965
12
1/
#457263
15
14
#461410
1'
#461417
1&
#500000
1!
1$
0"
0#
1(
#500965
02
0/
#500985
13
#501004
10
#550000
1"
1#
0(
#550965
12
1/
#557021
11
#557328
04
#560766
1%
#561475
0'
#600000
0!
0$
0"
0#
1(
#600965
02
0/
#600985
03
#601004
00
#606987
05
#607021
01
#610766
0%
#611141
0&
#650000
1"
1#
0(
#650965
12
1/
#657263
15
14
#661410
1'
#661417
1&
#700000
1!
1$
0"
0#
1(
#700965
02
0/
#700985
13
#701004
10
#750000
1"
1#
0(
#750965
12
1/
#757021
11
#757328
04
#760766
1%
#761475
0'
#800000
0!
0$
0"
0#
1(
#800965
02
0/
#800985
03
#801004
00
#806987
05
#807021
01
#810766
0%
#811141
0&
#850000
1"
1#
0(
#850965
12
1/
#857263
15
14
#861410
1'
#861417
1&
#900000
1!
1$
0"
0#
1(
#900965
02
0/
#900985
13
#901004
10
#950000
1"
1#
0(
#950965
12
1/
#957021
11
#957328
04
#960766
1%
#961475
0'
