week13/dff_double/simulation/qsim/dff_double.msim.vcd
$comment
	File created using the following command:
		vcd file dff_double.msim.vcd -direction
$end
$date
	Wed Nov 29 15:54:14 2023
$end
$version
	ModelSim Version 10.1d
$end
$timescale
	1ps
$end
$scope module dff_double_vlg_vec_tst $end
$var reg 1 ! clk $end
$var reg 1 " clr $end
$var reg 1 # d1 $end
$var wire 1 $ q1 $end
$var wire 1 % q2 $end
$var wire 1 & sampler $end
$scope module i1 $end
$var wire 1 ' gnd $end
$var wire 1 ( vcc $end
$var wire 1 ) unknown $end
$var tri1 1 * devclrn $end
$var tri1 1 + devpor $end
$var tri1 1 , devoe $end
$var wire 1 - q1~output_o $end
$var wire 1 . q2~output_o $end
$var wire 1 / clk~input_o $end
$var wire 1 0 clk~inputclkctrl_outclk $end
$var wire 1 1 d1~input_o $end
$var wire 1 2 q1~reg0feeder_combout $end
$var wire 1 3 clr~input_o $end
$var wire 1 4 clr~inputclkctrl_outclk $end
$var wire 1 5 q1~reg0_q $end
$var wire 1 6 q2~reg0feeder_combout $end
$var wire 1 7 q2~reg0_q $end
$upscope $end
$upscope $end
$enddefinitions $end
#0
$dumpvars
0!
1"
0#
x$
x%
x&
0'
1(
x)
1*
1+
1,
x-
x.
0/
x0
01
x2
13
x4
05
x6
07
$end
#208
00
#222
14
#548
06
#3377
02
#3515
0.
0%
#3529
0-
0$
#5000
1!
0&
#5766
1/
#5988
10
#10000
0"
0!
1&
#10812
0/
#10822
03
#11020
00
#11030
04
#15000
1!
0&
#15766
1/
#15988
10
#20000
0!
1&
#20812
0/
#21020
00
#25000
1!
0&
#25766
1/
#25988
10
#30000
0!
1&
#30812
0/
#31020
00
#35000
1!
0&
#35766
1/
#35988
10
#40000
0!
1&
#40812
0/
#41020
00
#45000
1!
0&
#45766
1/
#45988
10
#50000
0!
1&
#50812
0/
#51020
00
#55000
1!
0&
#55766
1/
#55988
10
#60000
1#
0!
1&
#60726
11
#60812
0/
#61020
00
#63893
12
#65000
1!
0&
#65766
1/
#65988
10
#70000
0!
1&
#70812
0/
#71020
00
#75000
1!
0&
#75766
1/
#75988
10
#80000
0!
1&
#80812
0/
#81020
00
#85000
1!
0&
#85766
1/
#85988
10
#90000
0!
1&
#90812
0/
#91020
00
#95000
1!
0&
#95766
1/
#95988
10
#100000
0!
1&
#100812
0/
#101020
00
#105000
1!
0&
#105766
1/
#105988
10
#110000
0!
1&
#110812
0/
#111020
00
#115000
1!
0&
#115766
1/
#115988
10
#120000
0!
1&
#120812
0/
#121020
00
#125000
1!
0&
#125766
1/
#125988
10
#130000
0!
1&
#130812
0/
#131020
00
#135000
1!
0&
#135766
1/
#135988
10
#140000
0!
1&
#140812
0/
#141020
00
#145000
1!
0&
#145766
1/
#145988
10
#150000
0!
1&
#150812
0/
#151020
00
#155000
1!
0&
#155766
1/
#155988
10
#160000
0!
1&
#160812
0/
#161020
00
#165000
1!
0&
#165766
1/
#165988
10
#170000
0#
0!
1&
#170772
01
#170812
0/
#171020
00
#174149
02
#175000
1!
0&
#175766
1/
#175988
10
#180000
0!
1&
#180812
0/
#181020
00
#185000
1!
0&
#185766
1/
#185988
10
#190000
0!
1&
#190812
0/
#191020
00
#195000
1!
0&
#195766
1/
#195988
10
#200000
0!
1&
#200812
0/
#201020
00
#205000
1!
0&
#205766
1/
#205988
10
#210000
1"
0!
1&
#210776
13
#210812
0/
#210998
14
#211020
00
#215000
1!
0&
#215766
1/
#215988
10
#220000
0!
1&
#220812
0/
#221020
00
#225000
1!
0&
#225766
1/
#225988
10
#230000
0!
1&
#230812
0/
#231020
00
#235000
1!
0&
#235766
1/
#235988
10
#240000
0!
1&
#240812
0/
#241020
00
#245000
1!
0&
#245766
1/
#245988
10
#250000
0!
1&
#250812
0/
#251020
00
#255000
1!
0&
#255766
1/
#255988
10
#260000
0!
1&
#260812
0/
#261020
00
#265000
1!
0&
#265766
1/
#265988
10
#270000
0!
1&
#270812
0/
#271020
00
#275000
1!
0&
#275766
1/
#275988
10
#280000
1#
0!
1&
#280726
11
#280812
0/
#281020
00
#283893
12
#285000
1!
0&
#285766
1/
#285988
10
#287891
15
#288391
16
#290000
0!
1&
#290812
0/
#291020
00
#291451
1-
1$
#295000
1!
0&
#295766
1/
#295988
10
#297891
17
#300000
0!
1&
#300812
0/
#301020
00
#301439
1.
1%
#305000
1!
0&
#305766
1/
#305988
10
#310000
0!
1&
#310812
0/
#311020
00
#315000
1!
0&
#315766
1/
#315988
10
#320000
0!
1&
#320812
0/
#321020
00
#325000
1!
0&
#325766
1/
#325988
10
#330000
0!
1&
#330812
0/
#331020
00
#335000
1!
0&
#335766
1/
#335988
10
#340000
0!
1&
#340812
0/
#341020
00
#345000
1!
0&
#345766
1/
#345988
10
#350000
0!
1&
#350812
0/
#351020
00
#355000
1!
0&
#355766
1/
#355988
10
#360000
0!
1&
#360812
0/
#361020
00
#365000
1!
0&
#365766
1/
#365988
10
#370000
0!
1&
#370812
0/
#371020
00
#375000
1!
0&
#375766
1/
#375988
10
#380000
0!
1&
#380812
0/
#381020
00
#385000
1!
0&
#385766
1/
#385988
10
#390000
0!
1&
#390812
0/
#391020
00
#395000
1!
0&
#395766
1/
#395988
10
#400000
0!
1&
#400812
0/
#401020
00
#405000
1!
0&
#405766
1/
#405988
10
#410000
0!
1&
#410812
0/
#411020
00
#415000
1!
0&
#415766
1/
#415988
10
#420000
0!
1&
#420812
0/
#421020
00
#425000
1!
0&
#425766
1/
#425988
10
#430000
0!
1&
#430812
0/
#431020
00
#435000
1!
0&
#435766
1/
#435988
10
#440000
0#
0!
1&
#440772
01
#440812
0/
#441020
00
#444149
02
#445000
1!
0&
#445766
1/
#445988
10
#447891
05
#448439
06
#450000
0!
1&
#450812
0/
#451020
00
#451420
0-
0$
#455000
1!
0&
#455766
1/
#455988
10
#457891
07
#460000
0!
1&
#460812
0/
#461020
00
#461406
0.
0%
#465000
1!
0&
#465766
1/
#465988
10
#470000
0!
1&
#470812
0/
#471020
00
#475000
1!
0&
#475766
1/
#475988
10
#480000
0!
1&
#480812
0/
#481020
00
#485000
1!
0&
#485766
1/
#485988
10
#490000
0!
1&
#490812
0/
#491020
00
#495000
1!
0&
#495766
1/
#495988
10
#500000
0!
1&
#500812
0/
#501020
00
#505000
1!
0&
#505766
1/
#505988
10
#510000
0!
1&
#510812
0/
#511020
00
#515000
1!
0&
#515766
1/
#515988
10
#520000
0!
1&
#520812
0/
#521020
00
#525000
1!
0&
#525766
1/
#525988
10
#530000
0!
1&
#530812
0/
#531020
00
#535000
1!
0&
#535766
1/
#535988
10
#540000
0!
1&
#540812
0/
#541020
00
#545000
1!
0&
#545766
1/
#545988
10
#550000
1#
0!
1&
#550726
11
#550812
0/
#551020
00
#553893
12
#555000
1!
0&
#555766
1/
#555988
10
#557891
15
#558391
16
#560000
0!
1&
#560812
0/
#561020
00
#561451
1-
1$
#565000
1!
0&
#565766
1/
#565988
10
#567891
17
#570000
0!
1&
#570812
0/
#571020
00
#571439
1.
1%
#575000
1!
0&
#575766
1/
#575988
10
#580000
0!
1&
#580812
0/
#581020
00
#585000
1!
0&
#585766
1/
#585988
10
#590000
0!
1&
#590812
0/
#591020
00
#595000
1!
0&
#595766
1/
#595988
10
#600000
0!
1&
#600812
0/
#601020
00
#605000
1!
0&
#605766
1/
#605988
10
#610000
0!
1&
#610812
0/
#611020
00
#615000
1!
0&
#615766
1/
#615988
10
#620000
0!
1&
#620812
0/
#621020
00
#625000
1!
0&
#625766
1/
#625988
10
#630000
0!
1&
#630812
0/
#631020
00
#635000
1!
0&
#635766
1/
#635988
10
#640000
0!
1&
#640812
0/
#641020
00
#645000
1!
0&
#645766
1/
#645988
10
#650000
0!
1&
#650812
0/
#651020
00
#655000
1!
0&
#655766
1/
#655988
10
#660000
0!
1&
#660812
0/
#661020
00
#665000
1!
0&
#665766
1/
#665988
10
#670000
0!
1&
#670812
0/
#671020
00
#675000
1!
0&
#675766
1/
#675988
10
#680000
0!
1&
#680812
0/
#681020
00
#685000
1!
0&
#685766
1/
#685988
10
#690000
0!
1&
#690812
0/
#691020
00
#695000
1!
0&
#695766
1/
#695988
10
#700000
0!
1&
#700812
0/
#701020
00
#705000
1!
0&
#705766
1/
#705988
10
#710000
0!
1&
#710812
0/
#711020
00
#715000
1!
0&
#715766
1/
#715988
10
#720000
0#
0!
1&
#720772
01
#720812
0/
#721020
00
#724149
02
#725000
1!
0&
#725766
1/
#725988
10
#727891
05
#728439
06
#730000
0!
1&
#730812
0/
#731020
00
#731420
0-
0$
#735000
1!
0&
#735766
1/
#735988
10
#737891
07
#740000
0!
1&
#740812
0/
#741020
00
#741406
0.
0%
#745000
1!
0&
#745766
1/
#745988
10
#750000
0!
1&
#750812
0/
#751020
00
#755000
1!
0&
#755766
1/
#755988
10
#760000
0!
1&
#760812
0/
#761020
00
#765000
1!
0&
#765766
1/
#765988
10
#770000
0!
1&
#770812
0/
#771020
00
#775000
1!
0&
#775766
1/
#775988
10
#780000
0!
1&
#780812
0/
#781020
00
#785000
1!
0&
#785766
1/
#785988
10
#790000
0!
1&
#790812
0/
#791020
00
#795000
1!
0&
#795766
1/
#795988
10
#800000
0!
1&
#800812
0/
#801020
00
#805000
1!
0&
#805766
1/
#805988
10
#810000
0!
1&
#810812
0/
#811020
00
#815000
1!
0&
#815766
1/
#815988
10
#820000
0!
1&
#820812
0/
#821020
00
#825000
1!
0&
#825766
1/
#825988
10
#830000
1#
0!
1&
#830726
11
#830812
0/
#831020
00
#833893
12
#835000
1!
0&
#835766
1/
#835988
10
#837891
15
#838391
16
#840000
0!
1&
#840812
0/
#841020
00
#841451
1-
1$
#845000
1!
0&
#845766
1/
#845988
10
#847891
17
#850000
0!
1&
#850812
0/
#851020
00
#851439
1.
1%
#855000
1!
0&
#855766
1/
#855988
10
#860000
0!
1&
#860812
0/
#861020
00
#865000
1!
0&
#865766
1/
#865988
10
#870000
0!
1&
#870812
0/
#871020
00
#875000
1!
0&
#875766
1/
#875988
10
#880000
0!
1&
#880812
0/
#881020
00
#885000
1!
0&
#885766
1/
#885988
10
#890000
0!
1&
#890812
0/
#891020
00
#895000
1!
0&
#895766
1/
#895988
10
#900000
0!
1&
#900812
0/
#901020
00
#905000
1!
0&
#905766
1/
#905988
10
#910000
0!
1&
#910812
0/
#911020
00
#915000
1!
0&
#915766
1/
#915988
10
#920000
0!
1&
#920812
0/
#921020
00
#925000
1!
0&
#925766
1/
#925988
10
#930000
0!
1&
#930812
0/
#931020
00
#935000
1!
0&
#935766
1/
#935988
10
#940000
0#
0!
1&
#940772
01
#940812
0/
#941020
00
#944149
02
#945000
1!
0&
#945766
1/
#945988
10
#947891
05
#948439
06
#950000
0!
1&
#950812
0/
#951020
00
#951420
0-
0$
#955000
1!
0&
#955766
1/
#955988
10
#957891
07
#960000
0!
1&
#960812
0/
#961020
00
#961406
0.
0%
#965000
1!
0&
#965766
1/
#965988
10
#970000
0!
1&
#970812
0/
#971020
00
#975000
1!
0&
#975766
1/
#975988
10
#980000
0!
1&
#980812
0/
#981020
00
#985000
1!
0&
#985766
1/
#985988
10
#990000
0!
1&
#990812
0/
#991020
00
#995000
1!
0&
#995766
1/
